Lab1/simulation/qsim/Lab1.msim.vcd
$comment
	File created using the following command:
		vcd file Lab1.msim.vcd -direction
$end
$date
	Sat Sep 15 11:43:04 2018
$end
$version
	ModelSim Version 10.5b
$end
$timescale
	1ps
$end

$scope module carrysave_ripplecarry_adder_vlg_vec_tst $end
$var reg 4 ! a [3:0] $end
$var reg 4 " b [3:0] $end
$var reg 4 # e [3:0] $end
$var reg 4 $ f [3:0] $end
$var wire 1 % s [5] $end
$var wire 1 & s [4] $end
$var wire 1 ' s [3] $end
$var wire 1 ( s [2] $end
$var wire 1 ) s [1] $end
$var wire 1 * s [0] $end

$scope module i1 $end
$var wire 1 + gnd $end
$var wire 1 , vcc $end
$var wire 1 - unknown $end
$var tri1 1 . devclrn $end
$var tri1 1 / devpor $end
$var tri1 1 0 devoe $end
$var wire 1 1 ~QUARTUS_CREATED_GND~I_combout $end
$var wire 1 2 f[2]~input_o $end
$var wire 1 3 b[2]~input_o $end
$var wire 1 4 e[2]~input_o $end
$var wire 1 5 inst|inst1|inst1~combout $end
$var wire 1 6 f[1]~input_o $end
$var wire 1 7 b[1]~input_o $end
$var wire 1 8 e[1]~input_o $end
$var wire 1 9 a[2]~input_o $end
$var wire 1 : inst4|inst1|inst5~0_combout $end
$var wire 1 ; e[3]~input_o $end
$var wire 1 < b[3]~input_o $end
$var wire 1 = f[3]~input_o $end
$var wire 1 > inst|inst|inst1~combout $end
$var wire 1 ? a[3]~input_o $end
$var wire 1 @ inst4|inst|inst5~0_combout $end
$var wire 1 A inst4|inst|inst1~combout $end
$var wire 1 B inst|inst|inst5~0_combout $end
$var wire 1 C a[1]~input_o $end
$var wire 1 D b[0]~input_o $end
$var wire 1 E e[0]~input_o $end
$var wire 1 F f[0]~input_o $end
$var wire 1 G a[0]~input_o $end
$var wire 1 H inst4|inst3|inst3~combout $end
$var wire 1 I inst|inst3|inst5~0_combout $end
$var wire 1 J inst|inst2|inst1~combout $end
$var wire 1 K inst4|inst1|inst1~0_combout $end
$var wire 1 L inst6|inst3|inst5~combout $end
$var wire 1 M inst6|inst|inst5~0_combout $end
$var wire 1 N inst6|inst|inst1~combout $end
$var wire 1 O inst6|inst2|inst1~combout $end
$var wire 1 P inst6|inst3|inst1~combout $end
$var wire 1 Q inst6|inst4|inst~combout $end
$var wire 1 R inst4|inst3|inst~combout $end
$upscope $end
$upscope $end
$enddefinitions $end
#0
$dumpvars
b1111 !
b1111 "
b1111 #
b1111 $
0*
0)
1(
1'
1&
1%
0+
1,
x-
1.
1/
10
01
12
13
14
15
16
17
18
19
1:
1;
1<
1=
1>
1?
1@
1A
1B
1C
1D
1E
1F
1G
1H
1I
1J
0K
1L
1M
1N
1O
1P
0Q
0R
$end
#30000
b111 !
b11 !
b1 !
b0 !
b111 "
b11 "
b1 "
b0 "
b111 #
b11 #
b1 #
b0 #
b111 $
b11 $
b1 $
b0 $
0F
06
02
0=
0E
08
04
0;
0D
07
03
0<
0G
0C
09
0?
0@
0:
0H
0B
0>
05
0J
0I
1Q
0P
0(
1)
0L
0A
0Q
0M
0O
0'
0%
0)
0N
0&
#50000
b1000 !
b1100 !
b1110 !
b1111 !
b1 "
b1000 #
b1100 #
b1110 #
b100 $
b101 $
1F
12
18
14
1;
1D
1G
1C
19
1?
1@
1K
1I
1>
1J
1Q
1R
1*
1)
1L
1A
1N
1&
0N
1M
1%
0&
#80000
b111 !
b11 !
b1 !
b0 !
b0 "
b110 #
b10 #
b0 #
b1 $
b0 $
0F
02
08
04
0;
0D
0G
0C
09
0?
0@
0K
0I
0>
0J
0Q
0R
0*
0)
0L
0A
1N
0M
0%
1&
0N
0&
#90000
b1000 "
b1010 "
b1 #
b1000 !
b1100 !
b1011 "
b11 #
b1 $
1F
19
1?
1E
18
1D
17
1<
1>
1:
1I
1A
1R
1*
0A
1@
1N
1Q
1)
1&
1O
1'
#120000
b11 "
b1 "
b10 #
b100 !
b0 !
b0 "
b0 #
b0 $
0F
09
0?
0E
08
0D
07
0<
0>
0:
0I
1A
0@
0R
0*
0A
0N
0Q
0)
0&
0O
0'
#130000
b1000 $
b1010 $
b10 !
b11 !
b1000 #
b1100 #
b1110 $
b1000 "
b111 !
b1001 "
b1111 $
1D
1<
14
1;
1G
1C
19
1F
16
12
1=
1B
1>
1A
1K
1J
1I
1R
1Q
1)
1*
1L
0A
1@
1O
1N
1&
1'
0N
1M
1%
0&
#160000
b111 $
b101 $
b101 !
b100 !
b100 #
b0 #
b1 $
b1 "
b0 !
b0 "
b0 $
0D
0<
04
0;
0G
0C
09
0F
06
02
0=
0B
0>
1A
0@
0K
0J
0I
0R
0Q
0)
0*
0L
0A
1N
0M
0O
0'
0%
1&
0N
0&
